{
  "photoset":{
    "id":"someid",
    "primary":"someprimary",
    "owner":"someid",
    "ownername":"somename",
    "photo":[
      {
        "id":"photo4",
        "secret":"photo4_secret",
        "server":"someserver",
        "farm":9,
        "title":"photo4",
        "isprimary":"0",
        "ispublic":1,
        "isfriend":0,
        "isfamily":0
      },
      {
        "id":"photo5",
        "secret":"photo5_secret",
        "server":"someserver",
        "farm":9,
        "title":"photo5",
        "isprimary":"0",
        "ispublic":1,
        "isfriend":0,
        "isfamily":0
      }
    ],
    "page":"2",
    "per_page":3,
    "perpage":3,
    "pages":2,
    "total":"5",
    "title":"Example set"
  },
  "stat":"ok"
}