{
  "photoset":{
    "id":"someid",
    "primary":"someprimary",
    "owner":"someid",
    "ownername":"somename",
    "photo":[
      {
        "id":"photo1_id",
        "secret":"photo1_secret",
        "server":"someserver",
        "farm":9,
        "title":"photo1",
        "isprimary":"0",
        "ispublic":1,
        "isfriend":0,
        "isfamily":0
      },
      {
        "id":"photo2_id",
        "secret":"photo2_secret",
        "server":"someserver",
        "farm":9,
        "title":"photo2",
        "isprimary":"0",
        "ispublic":1,
        "isfriend":0,
        "isfamily":0
      },
      {
        "id":"photo3_id",
        "secret":"photo3_secret",
        "server":"someserver",
        "farm":9,
        "title":"photo3",
        "isprimary":"0",
        "ispublic":1,
        "isfriend":0,
        "isfamily":0
      }
    ],
    "page":"1",
    "per_page":3,
    "perpage":3,
    "pages":2,
    "total":"5",
    "title":"Example set"
  },
  "stat":"ok"
}